0.000000000000000000e+00  0.0  0.000000000000000000e+00  0.000000000000000000e+00  0.0  3.977492999999999945e+00
2.399999999999999790e-03  0.0  2.399999999999999911e-01  3.199999999999999855e-05  0.0  3.974301000000000084e+00
4.799999999999999580e-03  0.0  4.799999999999999822e-01  1.279999999999999942e-04  0.0  3.964716000000000129e+00
7.199999999999999803e-03  0.0  7.199999999999999734e-01  2.880000000000000073e-04  0.0  3.948714999999999975e+00
9.599999999999999159e-03  0.0  9.599999999999999645e-01  5.140000000000000254e-04  0.0  3.926267999999999869e+00
1.200000000000000025e-02  0.0  1.199999999999999956e+00  8.050000000000000515e-04  0.0  3.897333999999999854e+00
1.439999999999999961e-02  0.0  1.439999999999999947e+00  1.162999999999999971e-03  0.0  3.861864000000000186e+00
1.679999999999999896e-02  0.0  1.679999999999999938e+00  1.590000000000000050e-03  0.0  3.819780999999999871e+00
1.919999999999999832e-02  0.0  1.919999999999999929e+00  2.092000000000000109e-03  0.0  3.770938000000000123e+00
2.160000000000000114e-02  0.0  2.160000000000000142e+00  2.684999999999999887e-03  0.0  3.715011000000000063e+00
2.400000000000000050e-02  0.0  2.399999999999999911e+00  3.406999999999999872e-03  0.0  3.651251999999999942e+00
2.639999999999999986e-02  0.0  2.640000000000000124e+00  4.351999999999999966e-03  0.0  3.577945999999999849e+00
2.879999999999999921e-02  0.0  2.879999999999999893e+00  5.756999999999999965e-03  0.0  3.491146000000000083e+00
3.119999999999999857e-02  0.0  3.120000000000000107e+00  8.224000000000000407e-03  0.0  3.381654999999999855e+00
3.359999999999999792e-02  0.0  3.359999999999999876e+00  1.327700000000000061e-02  0.0  3.227686999999999973e+00
3.599999999999999728e-02  0.0  3.600000000000000089e+00  2.405799999999999952e-02  0.0  2.980045000000000055e+00
3.839999999999999664e-02  0.0  3.839999999999999858e+00  4.126400000000000207e-02  0.0  2.562273999999999941e+00
4.080000000000000293e-02  0.0  4.080000000000000071e+00  4.901099999999999901e-02  0.0  1.993813999999999975e+00
4.320000000000000229e-02  0.0  4.320000000000000284e+00  3.941200000000000259e-02  0.0  1.478688999999999920e+00
4.560000000000000164e-02  0.0  4.559999999999999609e+00  2.877400000000000097e-02  0.0  1.113444000000000100e+00
4.800000000000000100e-02  0.0  4.799999999999999822e+00  2.229400000000000132e-02  0.0  8.541739999999999888e-01
5.040000000000000036e-02  0.0  5.040000000000000036e+00  1.782100000000000004e-02  0.0  6.591559999999999642e-01
5.279999999999999971e-02  0.0  5.280000000000000249e+00  1.561899999999999920e-02  0.0  5.073419999999999597e-01
5.519999999999999907e-02  0.0  5.519999999999999574e+00  1.863199999999999926e-02  0.0  3.570420000000000260e-01
5.759999999999999842e-02  0.0  5.759999999999999787e+00  1.663699999999999901e-02  0.0  1.997559999999999891e-01
5.999999999999999778e-02  0.0  6.000000000000000000e+00  9.528000000000000011e-03  0.0  9.231399999999999328e-02
6.239999999999999714e-02  0.0  6.240000000000000213e+00  4.022000000000000401e-03  0.0  4.090799999999999992e-02
6.479999999999999649e-02  0.0  6.480000000000000426e+00  9.150000000000000147e-04  0.0  2.368299999999999919e-02
6.719999999999999585e-02  0.0  6.719999999999999751e+00 -1.140000000000000063e-04  0.0  2.205400000000000069e-02
6.959999999999999520e-02  0.0  6.959999999999999964e+00  1.569999999999999944e-04  0.0  2.228300000000000072e-02
7.199999999999999456e-02  0.0  7.200000000000000178e+00  5.730000000000000501e-04  0.0  1.974499999999999866e-02
7.439999999999999392e-02  0.0  7.440000000000000391e+00  8.559999999999999901e-04  0.0  1.498400000000000079e-02
7.679999999999999327e-02  0.0  7.679999999999999716e+00  1.030000000000000100e-03  0.0  8.944999999999999826e-03
7.920000000000000651e-02  0.0  7.919999999999999929e+00  1.123999999999999999e-03  0.0  2.276999999999999944e-03
8.160000000000000586e-02  0.0  8.160000000000000142e+00 -2.999999999999999737e-04  0.0  0.000000000000000000e+00
